^D:\UE4\ПРОЕКТЫ НА ПЛЮСАХ\16.5\16.5\DEBUG\16.5.OBJ
D:\UE4\Проекты на плюсах\16.5\16.5\DEBUG\16.5.EXE
D:\UE4\Проекты на плюсах\16.5\16.5\DEBUG\16.5.ILK
D:\UE4\ПРОЕКТЫ НА ПЛЮСАХ\16.5\16.5\DEBUG\16.5.PDB
